{
  "_meta": {
    "sources": [
      "loopback/common/models",
      "loopback/server/models",
      "../common/models",
      "./models"
    ],
    "mixins": [
      "loopback/common/mixins",
      "loopback/server/mixins",
      "../node_modules/loopback-ds-timestamp-mixin",
      "../node_modules/loopback-setup-remote-methods-mixin",
      "../common/mixins",
      "./mixins"
    ]
  },
  "User": {
    "dataSource": "db"
  },
  "AccessToken": {
    "dataSource": "db",
    "public": false
  },
  "ACL": {
    "dataSource": "db",
    "public": false
  },
  "RoleMapping": {
    "dataSource": "db",
    "public": false,
    "options": {
      "strictObjectIDCoercion": true
    }
  },
  "Role": {
    "dataSource": "db",
    "public": false
  },
  "MergeGroup": {
    "dataSource": "localMongo",
    "public": true
  },
  "MergeJob": {
    "dataSource": "localMongo",
    "public": true
  },
  "MergeReport": {
    "dataSource": "localMongo",
    "public": true
  },
  "Counter": {
    "dataSource": "localMongo",
    "public": true
  },
  "ProductionGroup": {
    "dataSource": "localMongo",
    "public": true
  }
}
